<?xml version="1.0" encoding="utf-8"?>
<!-- Generator: Adobe Illustrator 15.1.0, SVG Export Plug-In  -->
<!DOCTYPE svg PUBLIC "-//W3C//DTD SVG 1.1//EN" "http://www.w3.org/Graphics/SVG/1.1/DTD/svg11.dtd" [
	<!ENTITY ns_flows "http://ns.adobe.com/Flows/1.0/">
]>
<svg version="1.1"
	 xmlns="http://www.w3.org/2000/svg" xmlns:xlink="http://www.w3.org/1999/xlink" xmlns:a="http://ns.adobe.com/AdobeSVGViewerExtensions/3.0/"
	 x="0px" y="0px" width="204px" height="69px" viewBox="-0.411 -0.21 204 69"
	 overflow="visible" enable-background="new -0.411 -0.21 204 69" xml:space="preserve">
<defs>
</defs>
<path fill="#010101" d="M199.705,39.651c-0.525,0.527-3.314,0.83-4.75,0.755c-2.639-0.228-4.139-0.228-6.777-0.228
	c-3.395-0.075-5.279-0.075-8.594,0c0,0,0.6-10.93,0.6-17.938c0-6.785-1.205-15.228-1.205-15.228h3.32c0,0,3.008,0,4.893-0.074
	c5.055-0.078,7.84-0.078,12.814-0.15l-0.15,3.77c0,0-1.43-1.888-4.824-1.588c-1.73,0.154-7.988,0.378-9.5,1.209
	c-0.225,1.583-0.068,11.228-0.068,11.228s2.559,0.078,4.148,0.078c3.766,0.078,9.639-0.301,9.639-0.301v2.938
	c0,0-5.648-0.3-9.268-0.15c-1.805,0.076-4.6,0.301-4.6,0.301l-0.225,12.892c1.809,0.375,2.863,0.375,4.748,0.6
	c3.395,0.377,7.314,0.83,9.125-0.6c1.055-0.83,1.123-1.208,2.029-2.189C200.609,37.088,200.836,38.143,199.705,39.651
	 M167.145,40.627c-1.885,0.683-8.742,1.211-12.133,0.078c-8.143-2.637-6.484-9.345-6.414-15.6c0.08-6.108,0.461-9.574-0.75-15.453
	c-0.225-1.055-0.375-1.659-0.68-2.713l3.09,0.074l3.775-0.074c-0.682,8.667-0.307,12.963-0.307,22.537
	c0,3.77,0.605,7.163,3.994,8.667c2.49,1.133,7.314,0.902,10.023-0.529c4.525-2.41,3.17-12.736,3.32-23.668
	c0.074-5.047-0.605-5.198-1.959-7.006l2.715,0.074l2.408-0.074c-0.523,8.14-0.074,14.774,0.15,23.74
	C174.529,37.313,171.514,39.124,167.145,40.627 M137.525,16.284c-4-11.077-17.867-8.744-20.502-0.225
	c-1.51,4.976-1.74,9.195-0.08,15.149c2.639,9.347,17.643,11.535,21.037,0C139.484,26.01,139.254,21.035,137.525,16.284
	 M135.26,45.907c-4.975-2.714-3.314-3.919-13.412-5.279c-4.674-0.677-8.219-4.291-10.254-9.419
	c-1.279-3.392-2.334-11.078,0.98-17.411c3.164-5.879,8.518-6.935,14.473-7.085c8.443-0.151,13.037,2.036,15.602,7.461
	c3.164,6.708,0.75,15.151-0.305,17.865c-2.184,5.656-6.553,7.613-12.357,8.517c1.205,0.3,2.109,0.228,3.613,0.453
	c3.926,0.602,3.85,2.185,5.955,3.616c2.189,1.508,2.264,0.827,3.693,1.133v1.732C140.988,47.717,138.955,47.867,135.26,45.907
	 M105.789,17.565c-0.225,9.122,0.305,23.062,0.305,23.062h-5.578c0,0,0.451-14.018,0.15-22.986
	c-0.15-4.901-0.904-10.326-0.904-10.326s2.111,0.151,3.463,0.151c1.359,0,3.395-0.151,3.395-0.151S105.945,13.572,105.789,17.565
	 M90.867,40.627c0,0-12.212-17.333-19.596-25.701c0,0-1.135,10.029-1.207,21.332c-0.303,2.565,2.261,4.369,2.261,4.369l-4.898,0.078
	c0,0,1.28-30.3-1.361-33.39h6.334c0,0,10.401,14.093,17.864,23.515c1.055-11.605,1.281-17.786,1.357-18.54
	c0.15-3.392-2.411-4.976-2.411-4.976l4.747,0.074l0.076,33.166L90.867,40.627z M60.566,17.565
	c-0.228,9.122,0.298,23.062,0.298,23.062h-5.65c0,0,0.452-14.018,0.148-22.986c-0.148-4.901-0.906-10.326-0.906-10.326
	s2.112,0.151,3.47,0.151s3.394-0.151,3.394-0.151S60.642,13.572,60.566,17.565 M50.694,40.103c-0.529,0.752-1.737,0.752-3.092,0.603
	c-2.637-0.225-4.147-0.15-6.784-0.225c-3.394-0.075-5.277,0-8.669,0.074c0,0,0.605-10.929,0.605-17.937
	c0-6.787-1.131-15.229-1.131-15.229h3.239l3.544-0.15l-0.679,30.302c1.809,0.3,2.938,0.3,4.822,0.527
	c3.318,0.452,5.806,0.755,7.615-0.678c1.056-0.833,1.056-1.207,2.262-2.414C51.898,37.088,51.748,38.521,50.694,40.103 M0.569,0
	H200.99v0.828H0.569V0z M0.493,50.167H200.91v0.83H0.493V50.167z M27.401,37.918c-0.527,1.505-1.808,2.637-4.447,3.015
	c-4.222,0.6-14.699,1.582-19.147-4.749c-5.652-8.142-4.446-19.974-0.074-24.875c3.994-4.447,8.668-4.896,14.699-4.369
	c3.542,0.3,4.899,0.601,8.441,0.679l0.075,4.369c-2.716-2.862-6.634-3.239-11.306-2.709C8.482,10.105,4.864,15.755,5.617,25.329
	c0.604,7.31,3.543,12.365,10.026,13.567c4.975,0.982,8.967-0.45,12.136-4.37C28.154,35.958,27.779,36.864,27.401,37.918"/>
<path fill="#010101" d="M3.379,61.933h3.83l-1.881-4.988L3.379,61.933z M4.852,56.016h1.036l3.817,9.734H8.707l-1.185-3.028H3.091
	l-1.17,3.028H0.925L4.852,56.016z"/>
<rect x="10.439" y="56.016" fill="#010101" width="0.86" height="9.734"/>
<rect x="12.417" y="56.016" fill="#010101" width="0.858" height="9.734"/>
<path fill="#010101" d="M19.71,61.743c-0.042-1.296-0.846-2.509-2.235-2.509c-1.406,0-2.182,1.224-2.317,2.509H19.71z
	 M15.157,62.465c0.012,1.253,0.667,2.766,2.317,2.766c1.253,0,1.936-0.736,2.207-1.799h0.858c-0.367,1.596-1.293,2.524-3.065,2.524
	c-2.236,0-3.178-1.719-3.178-3.724c0-1.853,0.942-3.722,3.178-3.722c2.263,0,3.162,1.976,3.093,3.954H15.157z"/>
<path fill="#010101" d="M21.727,58.715h0.791v1.648h0.027c0.437-1.132,1.39-1.799,2.657-1.742v0.859
	c-1.554-0.083-2.617,1.062-2.617,2.519v3.751h-0.858V58.715z"/>
<path fill="#010101" d="M30.559,62.153c0-1.379-0.64-2.919-2.262-2.919c-1.636,0-2.317,1.457-2.317,2.919
	c0,1.416,0.736,2.792,2.317,2.792C29.783,64.945,30.559,63.582,30.559,62.153 M31.42,65.177c-0.015,2.1-0.819,3.382-3.123,3.382
	c-1.404,0-2.793-0.629-2.918-2.129h0.861c0.19,1.039,1.103,1.406,2.057,1.406c1.583,0,2.262-0.942,2.262-2.659v-0.955h-0.027
	c-0.395,0.859-1.227,1.448-2.235,1.448c-2.25,0-3.175-1.612-3.175-3.614c0-1.936,1.143-3.545,3.175-3.545
	c1.023,0,1.897,0.64,2.235,1.419h0.027v-1.215h0.861V65.177z"/>
<path fill="#010101" d="M32.265,58.715h0.913l2.317,5.999l2.167-5.999h0.858l-3.052,8.111c-0.491,1.187-0.778,1.526-1.855,1.526
	c-0.34-0.014-0.517-0.014-0.653-0.067v-0.723c0.203,0.04,0.395,0.069,0.586,0.069c0.762,0,0.94-0.452,1.228-1.105l0.3-0.803
	L32.265,58.715z"/>
<polygon fill="#010101" points="41.182,56.016 48.898,56.016 48.898,56.806 45.503,56.806 45.503,65.75 44.577,65.75 44.577,56.806 
	41.182,56.806 "/>
<path fill="#010101" d="M52.101,61.743c-0.042-1.296-0.846-2.509-2.234-2.509c-1.407,0-2.184,1.224-2.318,2.509H52.101z
	 M47.549,62.465c0.013,1.253,0.667,2.766,2.318,2.766c1.253,0,1.934-0.736,2.207-1.799h0.858c-0.368,1.596-1.294,2.524-3.065,2.524
	c-2.235,0-3.178-1.719-3.178-3.724c0-1.853,0.942-3.722,3.178-3.722c2.262,0,3.16,1.976,3.092,3.954H47.549z"/>
<path fill="#010101" d="M58.059,60.776c-0.042-1.065-0.86-1.542-1.84-1.542c-0.764,0-1.664,0.3-1.664,1.213
	c0,0.764,0.873,1.036,1.459,1.187l1.145,0.26c0.983,0.149,2.003,0.723,2.003,1.948c0,1.526-1.511,2.112-2.819,2.112
	c-1.637,0-2.753-0.763-2.893-2.479h0.861c0.069,1.156,0.926,1.756,2.071,1.756c0.804,0,1.922-0.355,1.922-1.336
	c0-0.816-0.762-1.09-1.539-1.279l-1.104-0.246c-1.118-0.3-1.964-0.683-1.964-1.883c0-1.43,1.406-1.976,2.646-1.976
	c1.403,0,2.521,0.736,2.576,2.265H58.059z"/>
<path fill="#010101" d="M61.221,58.715h1.431v0.723h-1.431v4.744c0,0.56,0.082,0.889,0.696,0.929c0.245,0,0.489-0.017,0.735-0.04
	v0.733c-0.258,0-0.504,0.026-0.763,0.026c-1.145,0-1.542-0.38-1.526-1.579v-4.813h-1.227v-0.723h1.227v-2.112h0.858V58.715z"/>
<path fill="#010101" d="M68.405,61.743c-0.04-1.296-0.846-2.509-2.237-2.509c-1.403,0-2.181,1.224-2.317,2.509H68.405z
	 M63.852,62.465c0.015,1.253,0.669,2.766,2.317,2.766c1.256,0,1.936-0.736,2.208-1.799h0.858c-0.367,1.596-1.294,2.524-3.067,2.524
	c-2.235,0-3.174-1.719-3.174-3.724c0-1.853,0.938-3.722,3.174-3.722c2.262,0,3.165,1.976,3.095,3.954H63.852z"/>
<path fill="#010101" d="M73.286,65.234c1.825,0,2.468-1.542,2.468-3.001c0-1.457-0.644-2.999-2.468-2.999
	c-1.637,0-2.305,1.542-2.305,2.999C70.981,63.692,71.648,65.234,73.286,65.234 M76.609,65.75h-0.79v-1.336h-0.027
	c-0.368,0.913-1.486,1.539-2.507,1.539c-2.14,0-3.164-1.731-3.164-3.721s1.024-3.722,3.164-3.722c1.05,0,2.072,0.53,2.44,1.54h0.028
	v-4.032h0.855V65.75z"/>
<rect x="78.751" y="64.305" fill="#010101" width="1.144" height="1.445"/>
<path fill="#010101" d="M82.609,58.045c1.501-0.054,2.426-0.08,2.687-1.839h0.695v9.544h-0.859v-7.089h-2.522V58.045z"/>
<path fill="#010101" d="M88.008,61.034c0,1.662,0.285,4.197,2.467,4.197c2.182,0,2.467-2.535,2.467-4.197
	c0-1.652-0.285-4.188-2.467-4.188C88.293,56.846,88.008,59.381,88.008,61.034 M93.801,61.034c0,2.235-0.546,4.92-3.327,4.92
	s-3.325-2.685-3.325-4.907c0-2.235,0.545-4.92,3.325-4.92S93.801,58.811,93.801,61.034"/>
<path fill="#010101" d="M95.587,61.034c0,1.662,0.286,4.197,2.468,4.197c2.181,0,2.467-2.535,2.467-4.197
	c0-1.652-0.286-4.188-2.467-4.188C95.873,56.846,95.587,59.381,95.587,61.034 M101.381,61.034c0,2.235-0.546,4.92-3.326,4.92
	c-2.782,0-3.328-2.685-3.328-4.907c0-2.235,0.546-4.92,3.328-4.92C100.835,56.126,101.381,58.811,101.381,61.034"/>
<path fill="#010101" d="M109.217,63.392c0,0.859,0.305,1.949,1.445,1.949c1.146,0,1.445-1.09,1.445-1.949
	c0-0.873-0.299-1.979-1.445-1.979C109.521,61.414,109.217,62.519,109.217,63.392 M112.83,63.378c0,1.459-0.627,2.578-2.168,2.578
	c-1.543,0-2.164-1.119-2.164-2.578s0.621-2.578,2.164-2.578C112.203,60.8,112.83,61.919,112.83,63.378 M110.336,55.867h0.643
	l-6.164,10.347h-0.652L110.336,55.867z M103.236,58.715c0,0.859,0.299,1.951,1.439,1.951c1.146,0,1.445-1.092,1.445-1.951
	c0-0.873-0.299-1.977-1.445-1.977C103.535,56.739,103.236,57.842,103.236,58.715 M106.844,58.702c0,1.459-0.625,2.578-2.168,2.578
	c-1.537,0-2.164-1.119-2.164-2.578s0.627-2.575,2.164-2.575C106.219,56.126,106.844,57.243,106.844,58.702"/>
<polygon fill="#010101" points="116.824,56.016 122.998,56.016 122.998,56.806 117.752,56.806 117.752,60.324 122.414,60.324 
	122.414,61.117 117.752,61.117 117.752,65.75 116.824,65.75 "/>
<path fill="#010101" d="M123.711,58.715h0.787v1.648h0.027c0.438-1.132,1.391-1.799,2.66-1.742v0.859
	c-1.553-0.083-2.619,1.062-2.619,2.519v3.751h-0.855V58.715z"/>
<path fill="#010101" d="M131.957,61.906h-0.027c-0.113,0.204-0.492,0.271-0.723,0.313c-1.457,0.257-3.271,0.246-3.271,1.622
	c0,0.859,0.76,1.39,1.568,1.39c1.307,0,2.463-0.83,2.453-2.208V61.906z M127.379,60.87c0.08-1.648,1.236-2.358,2.848-2.358
	c1.236,0,2.586,0.383,2.586,2.265v3.735c0,0.326,0.166,0.517,0.51,0.517c0.096,0,0.203-0.027,0.273-0.054v0.72
	c-0.193,0.041-0.332,0.057-0.562,0.057c-0.873,0-1.008-0.492-1.008-1.229h-0.031c-0.594,0.913-1.211,1.432-2.561,1.432
	c-1.295,0-2.361-0.64-2.361-2.059c0-1.979,1.928-2.045,3.781-2.262c0.707-0.083,1.104-0.177,1.104-0.953
	c0-1.159-0.83-1.448-1.842-1.448c-1.061,0-1.854,0.492-1.881,1.638H127.379z"/>
<path fill="#010101" d="M139.072,62.153c0-1.379-0.643-2.919-2.266-2.919c-1.633,0-2.318,1.457-2.318,2.919
	c0,1.416,0.74,2.792,2.318,2.792C138.297,64.945,139.072,63.582,139.072,62.153 M139.93,65.177c-0.012,2.1-0.814,3.382-3.123,3.382
	c-1.402,0-2.795-0.629-2.918-2.129h0.863c0.188,1.036,1.102,1.406,2.055,1.406c1.586,0,2.266-0.942,2.266-2.659v-0.955h-0.027
	c-0.396,0.859-1.225,1.445-2.238,1.445c-2.248,0-3.174-1.609-3.174-3.611c0-1.936,1.145-3.545,3.174-3.545
	c1.029,0,1.896,0.64,2.238,1.416h0.027v-1.212h0.857V65.177z"/>
<path fill="#010101" d="M141.021,58.715h0.793v1.648h0.025c0.434-1.132,1.393-1.799,2.656-1.742v0.859
	c-1.553-0.083-2.617,1.062-2.617,2.519v3.751h-0.857V58.715z"/>
<path fill="#010101" d="M149.541,61.906h-0.027c-0.113,0.204-0.492,0.271-0.723,0.313c-1.457,0.257-3.271,0.246-3.271,1.622
	c0,0.859,0.766,1.39,1.568,1.39c1.307,0,2.469-0.83,2.453-2.208V61.906z M144.963,60.87c0.08-1.648,1.242-2.358,2.848-2.358
	c1.236,0,2.586,0.383,2.586,2.265v3.735c0,0.326,0.166,0.517,0.51,0.517c0.096,0,0.203-0.027,0.268-0.054v0.72
	c-0.188,0.041-0.322,0.057-0.557,0.057c-0.873,0-1.008-0.492-1.008-1.229h-0.027c-0.6,0.913-1.209,1.432-2.564,1.432
	c-1.295,0-2.355-0.64-2.355-2.059c0-1.979,1.918-2.045,3.775-2.262c0.707-0.083,1.104-0.177,1.104-0.953
	c0-1.159-0.836-1.448-1.844-1.448c-1.059,0-1.852,0.492-1.879,1.638H144.963z"/>
<path fill="#010101" d="M152.105,58.715h0.855v1.212h0.027c0.316-0.843,1.254-1.416,2.248-1.416c1.977,0,2.576,1.036,2.576,2.712
	v4.527h-0.857V61.36c0-1.213-0.395-2.128-1.787-2.128c-1.361,0-2.18,1.036-2.207,2.414v4.104h-0.855V58.715z"/>
<path fill="#010101" d="M164.125,60.923c-0.23-1.049-0.873-1.691-1.986-1.691c-1.654,0-2.469,1.502-2.469,3.001
	s0.814,2.998,2.469,2.998c1.061,0,1.934-0.83,2.045-2.005h0.857c-0.23,1.691-1.338,2.728-2.902,2.728
	c-2.158,0-3.324-1.705-3.324-3.721s1.166-3.722,3.324-3.722c1.5,0,2.656,0.804,2.844,2.412H164.125z"/>
<path fill="#010101" d="M171.301,61.743c-0.043-1.296-0.852-2.509-2.238-2.509c-1.402,0-2.18,1.224-2.318,2.509H171.301z
	 M166.744,62.465c0.016,1.253,0.668,2.766,2.318,2.766c1.252,0,1.932-0.736,2.205-1.799h0.863c-0.371,1.596-1.297,2.524-3.068,2.524
	c-2.238,0-3.176-1.719-3.176-3.724c0-1.853,0.938-3.722,3.176-3.722c2.26,0,3.164,1.976,3.094,3.954H166.744z"/>
<polygon fill="#010101" points="177.266,56.016 183.443,56.016 183.443,56.806 178.197,56.806 178.197,60.324 182.855,60.324 
	182.855,61.117 178.197,61.117 178.197,65.75 177.266,65.75 "/>
<path fill="#010101" d="M184.15,58.715h0.793v1.648h0.027c0.434-1.132,1.387-1.799,2.654-1.742v0.859
	c-1.553-0.083-2.611,1.062-2.611,2.519v3.751h-0.863V58.715z"/>
<path fill="#010101" d="M192.959,61.743c-0.043-1.296-0.846-2.509-2.238-2.509c-1.402,0-2.186,1.224-2.318,2.509H192.959z
	 M188.402,62.465c0.016,1.253,0.67,2.766,2.318,2.766c1.252,0,1.938-0.736,2.211-1.799h0.857c-0.369,1.596-1.297,2.524-3.068,2.524
	c-2.232,0-3.176-1.719-3.176-3.724c0-1.853,0.943-3.722,3.176-3.722c2.266,0,3.164,1.976,3.094,3.954H188.402z"/>
<path fill="#010101" d="M200.031,61.743c-0.043-1.296-0.846-2.509-2.238-2.509c-1.402,0-2.178,1.224-2.318,2.509H200.031z
	 M195.475,62.465c0.018,1.253,0.67,2.766,2.318,2.766c1.26,0,1.939-0.736,2.213-1.799h0.855c-0.363,1.596-1.289,2.524-3.068,2.524
	c-2.232,0-3.17-1.719-3.17-3.724c0-1.853,0.938-3.722,3.17-3.722c2.266,0,3.166,1.976,3.096,3.954H195.475z"/>
<rect x="202.008" y="64.305" fill="#010101" width="1.146" height="1.445"/>
</svg>
